…
Use the function `amino_acid_pairs()` to generate all 20 x 20 amino acid
pairs:

``` r
aa_pairs <- amino_acid_pairs()
aa_pairs
#> # A tibble: 400 × 2
#>    x     y    
#>    <chr> <chr>
#>  1 Ser   Ser  
#>  2 Ser   Arg  
#>  3 Ser   Leu  
#>  4 Ser   Pro  
#>  5 Ser   Thr  
#>  6 Ser   Ala  
#>  7 Ser   Val  
#>  8 Ser   Gly  
#>  9 Ser   Ile  
#> 10 Ser   Phe  
#> # … with 390 more rows
#> # ℹ Use `print(n = ...)` to see more rows
```

And now calculate all Grantham distances for all pairs `aa_pairs`:

``` r
grantham_distance(x = aa_pairs$x, y = aa_pairs$y)
#> # A tibble: 400 × 3
#>    x     y         d
#>    <chr> <chr> <dbl>
#>  1 Ser   Ser       0
#>  2 Ser   Arg     110
#>  3 Ser   Leu     145
#>  4 Ser   Pro      74
#>  5 Ser   Thr      58
#>  6 Ser   Ala      99
#>  7 Ser   Val     124
#>  8 Ser   Gly      56
#>  9 Ser   Ile     142
#> 10 Ser   Phe     155
#> # … with 390 more rows
#> # ℹ Use `print(n = ...)` to see more rows
```

Because distances are symmetric, and for pairs formed by the same amino
acid are trivially zero, you might want to exclude these pairs:

``` r
# `keep_self = FALSE`: excludes pairs such as ("Ser", "Ser")
# `keep_reverses = FALSE`: excludes reversed pairs, e.g. ("Arg", "Ser") will be
# removed because ("Ser", "Arg") already exists.
aa_pairs <- amino_acid_pairs(keep_self = FALSE, keep_reverses = FALSE)

# These amino acid pairs are the 190 pairs shown in Table 2 of Grantham's
# original publication.
aa_pairs
#> # A tibble: 190 × 2
#>    x     y    
#>    <chr> <chr>
#>  1 Ser   Arg  
#>  2 Ser   Leu  
#>  3 Ser   Pro  
#>  4 Ser   Thr  
#>  5 Ser   Ala  
#>  6 Ser   Val  
#>  7 Ser   Gly  
#>  8 Ser   Ile  
#>  9 Ser   Phe  
#> 10 Ser   Tyr  
#> # … with 180 more rows
#> # ℹ Use `print(n = ...)` to see more rows

# Grantham distance for the 190 unique amino acid pairs
grantham_distance(x = aa_pairs$x, y = aa_pairs$y)
#> # A tibble: 190 × 3
#>    x     y         d
#>    <chr> <chr> <dbl>
#>  1 Ser   Arg     110
#>  2 Ser   Leu     145
#>  3 Ser   Pro      74
#>  4 Ser   Thr      58
#>  5 Ser   Ala      99
#>  6 Ser   Val     124
#>  7 Ser   Gly      56
#>  8 Ser   Ile     142
#>  9 Ser   Phe     155
#> 10 Ser   Tyr     144
#> # … with 180 more rows
#> # ℹ Use `print(n = ...)` to see more rows
```
…
