Grantham distance — grantham_distance • grantham
…
# `grantham_distance()` is vectorised
# amino acids are paired element-wise between `x` and `y`
grantham_distance(x = c('Pro', 'Gly'), y = c('Glu', 'Arg'))
#> # A tibble: 2 × 3
#>   x     y         d
#>   <chr> <chr> <dbl>
#> 1 Pro   Glu      93
#> 2 Gly   Arg     125

# Use `amino_acid_pairs()` to generate pairs (by default generates all pairs)
aa_pairs <- amino_acid_pairs()
grantham_distance(x = aa_pairs$x, y = aa_pairs$y)
#> # A tibble: 400 × 3
#>    x     y         d
#>    <chr> <chr> <dbl>
#>  1 Ser   Ser       0
#>  2 Ser   Arg     110
#>  3 Ser   Leu     145
#>  4 Ser   Pro      74
#>  5 Ser   Thr      58
#>  6 Ser   Ala      99
#>  7 Ser   Val     124
#>  8 Ser   Gly      56
#>  9 Ser   Ile     142
#> 10 Ser   Phe     155
#> # … with 390 more rows
…
